^Z:\UE_4 PROJECT\HOMEWORK_2_C++\DEBUG\SOURCE.OBJ
Z:\UE_4 PROJECT\HOMEWORK_2_C++\DEBUG\HOMEWORK_2_C++.EXE
Z:\UE_4 PROJECT\HOMEWORK_2_C++\DEBUG\HOMEWORK_2_C++.ILK
Z:\UE_4 PROJECT\HOMEWORK_2_C++\DEBUG\HOMEWORK_2_C++.PDB
